  0.32258064516129031       -2.0000000000000000     
  0.64516129032258063       -2.0942507068803016     
  0.96774193548387100       -2.2345880323101261     
   1.2903225806451613       -2.3788684559216646     
   1.6129032258064515       -2.5101821385151686     
   1.9354838709677418       -2.6252868672592311     
   2.2580645161290320       -2.7255045617924849     
   2.5806451612903225       -2.8131459808810040     
   2.9032258064516130       -2.8904124195854632     
   3.2258064516129035       -2.9591408712417153     
   3.5483870967741939       -3.0208023843255383     
   3.8709677419354844       -3.0765625346562255     
   4.1935483870967749       -3.1273464294661673     
   4.5161290322580649       -3.1738934176156364     
   4.8387096774193550       -3.2167997566011213     
   5.1612903225806450       -3.2565509991081947     
   5.4838709677419351       -3.2935463944505257     
   5.8064516129032251       -3.3281173022648356     
   6.1290322580645151       -3.3605411697367131     
   6.4516129032258052       -3.3910522260049349     
   6.7741935483870952       -3.4198497376219894     
   7.0967741935483852       -3.4471044397979806     
   7.4193548387096753       -3.4729635921734068     
   7.7419354838709653       -3.4975549884770816     
   8.0645161290322562       -3.5209901635337593     
   8.3870967741935463       -3.5433669790422955     
   8.7096774193548363       -3.5647717244503441     
   9.0322580645161263       -3.5852808362348729     
   9.3548387096774164       -3.6049623145328269     
   9.6774193548387064       -3.6238768979396458     
   9.9999999999999964       -3.6420790436979438     
   10.322580645161286       -3.6596177502199820     
