  0.15873015873015872       -2.0000000000000000     
  0.31746031746031744       -2.0245760629147211     
  0.47619047619047616       -2.0697974468168754     
  0.63492063492063489       -2.1293339919131928     
  0.79365079365079361       -2.1967975095347838     
  0.95238095238095233       -2.2671651228774530     
   1.1111111111111112       -2.3370944885623315     
   1.2698412698412698       -2.4046369851536156     
   1.4285714285714284       -2.4688072136280024     
   1.5873015873015870       -2.5292179375591171     
   1.7460317460317456       -2.5858260175720464     
   1.9047619047619042       -2.6387721850701249     
   2.0634920634920628       -2.6882857082398028     
   2.2222222222222214       -2.7346300038534705     
   2.3809523809523800       -2.7780728530260141     
   2.5396825396825387       -2.8188709673079710     
   2.6984126984126973       -2.8572627381244993     
   2.8571428571428559       -2.8934655453795437     
   3.0158730158730145       -2.9276755257996032     
   3.1746031746031731       -2.9600685988576849     
   3.3333333333333317       -2.9908020709429723     
   3.4920634920634903       -3.0200164412785715     
   3.6507936507936489       -3.0478372075826710     
   3.8095238095238075       -3.0743765692916720     
   3.9682539682539661       -3.0997349825965950     
   4.1269841269841248       -3.1240025528001691     
   4.2857142857142838       -3.1472602661993201     
   4.4444444444444429       -3.1695810720355380     
   4.6031746031746019       -3.1910308286563818     
   4.7619047619047610       -3.2116691290099006     
   4.9206349206349200       -3.2315500201797520     
   5.0793650793650791       -3.2507226305713437     
   5.2380952380952381       -3.2692317169809342     
   5.3968253968253972       -3.2871181423426798     
   5.5555555555555562       -3.3044192935701910     
   5.7142857142857153       -3.3211694476454174     
   5.8730158730158744       -3.3374000929801819     
   6.0317460317460334       -3.3531402120869247     
   6.1904761904761925       -3.3684165307378624     
   6.3492063492063515       -3.3832537380537633     
   6.5079365079365106       -3.3976746813313357     
   6.6666666666666696       -3.4117005388782413     
   6.8253968253968287       -3.4253509736642798     
   6.9841269841269877       -3.4386442702049451     
   7.1428571428571468       -3.4515974567592402     
   7.3015873015873058       -3.4642264146386363     
   7.4603174603174649       -3.4765459761808888     
   7.6190476190476240       -3.4885700127346957     
   7.7777777777777830       -3.5003115138234855     
   7.9365079365079421       -3.5117826585043748     
   8.0952380952381002       -3.5229948798076847     
   8.2539682539682584       -3.5339589230300730     
   8.4126984126984166       -3.5446848985575996     
   8.5714285714285747       -3.5551823298115566     
   8.7301587301587329       -3.5654601968377313     
   8.8888888888888911       -3.5755269759972528     
   9.0476190476190492       -3.5853906761629295     
   9.2063492063492074       -3.5950588717778134     
   9.3650793650793656       -3.6045387330916472     
   9.5238095238095237       -3.6138370538549838     
   9.6825396825396819       -3.6229602767194247     
   9.8412698412698401       -3.6319145165649567     
   9.9999999999999982       -3.6407055819512721     
   10.158730158730156       -3.6493389948687720     
